%YAML 1.1
%TAG !u! tag:unity3d.com,2011:
--- !u!29 &1
OcclusionCullingSettings:
  m_ObjectHideFlags: 0
  serializedVersion: 2
  m_OcclusionBakeSettings:
    smallestOccluder: 5
    smallestHole: 0.25
    backfaceThreshold: 100
  m_SceneGUID: 00000000000000000000000000000000
  m_OcclusionCullingData: {fileID: 0}
--- !u!104 &2
RenderSettings:
  m_ObjectHideFlags: 0
  serializedVersion: 9
  m_Fog: 0
  m_FogColor: {r: 0.5, g: 0.5, b: 0.5, a: 1}
  m_FogMode: 3
  m_FogDensity: 0.01
  m_LinearFogStart: 0
  m_LinearFogEnd: 300
  m_AmbientSkyColor: {r: 0.212, g: 0.227, b: 0.259, a: 1}
  m_AmbientEquatorColor: {r: 0.114, g: 0.125, b: 0.133, a: 1}
  m_AmbientGroundColor: {r: 0.047, g: 0.043, b: 0.035, a: 1}
  m_AmbientIntensity: 1
  m_AmbientMode: 0
  m_SubtractiveShadowColor: {r: 0.42, g: 0.478, b: 0.627, a: 1}
  m_SkyboxMaterial: {fileID: 10304, guid: 0000000000000000f000000000000000, type: 0}
  m_HaloStrength: 0.5
  m_FlareStrength: 1
  m_FlareFadeSpeed: 3
  m_HaloTexture: {fileID: 0}
  m_SpotCookie: {fileID: 10001, guid: 0000000000000000e000000000000000, type: 0}
  m_DefaultReflectionMode: 0
  m_DefaultReflectionResolution: 128
  m_ReflectionBounces: 1
  m_ReflectionIntensity: 1
  m_CustomReflection: {fileID: 0}
  m_Sun: {fileID: 0}
  m_IndirectSpecularColor: {r: 0, g: 0, b: 0, a: 1}
  m_UseRadianceAmbientProbe: 0
--- !u!157 &3
LightmapSettings:
  m_ObjectHideFlags: 0
  serializedVersion: 11
  m_GIWorkflowMode: 0
  m_GISettings:
    serializedVersion: 2
    m_BounceScale: 1
    m_IndirectOutputScale: 1
    m_AlbedoBoost: 1
    m_TemporalCoherenceThreshold: 1
    m_EnvironmentLightingMode: 0
    m_EnableBakedLightmaps: 1
    m_EnableRealtimeLightmaps: 1
  m_LightmapEditorSettings:
    serializedVersion: 10
    m_Resolution: 2
    m_BakeResolution: 40
    m_AtlasSize: 1024
    m_AO: 0
    m_AOMaxDistance: 1
    m_CompAOExponent: 0
    m_CompAOExponentDirect: 0
    m_Padding: 2
    m_LightmapParameters: {fileID: 0}
    m_LightmapsBakeMode: 1
    m_TextureCompression: 1
    m_FinalGather: 0
    m_FinalGatherFiltering: 1
    m_FinalGatherRayCount: 1024
    m_ReflectionCompression: 2
    m_MixedBakeMode: 1
    m_BakeBackend: 0
    m_PVRSampling: 1
    m_PVRDirectSampleCount: 32
    m_PVRSampleCount: 500
    m_PVRBounces: 2
    m_PVRFilterTypeDirect: 0
    m_PVRFilterTypeIndirect: 0
    m_PVRFilterTypeAO: 0
    m_PVRFilteringMode: 0
    m_PVRCulling: 1
    m_PVRFilteringGaussRadiusDirect: 1
    m_PVRFilteringGaussRadiusIndirect: 5
    m_PVRFilteringGaussRadiusAO: 2
    m_PVRFilteringAtrousPositionSigmaDirect: 0.5
    m_PVRFilteringAtrousPositionSigmaIndirect: 2
    m_PVRFilteringAtrousPositionSigmaAO: 1
    m_ShowResolutionOverlay: 1
  m_LightingDataAsset: {fileID: 0}
  m_UseShadowmask: 0
--- !u!196 &4
NavMeshSettings:
  serializedVersion: 2
  m_ObjectHideFlags: 0
  m_BuildSettings:
    serializedVersion: 2
    agentTypeID: 0
    agentRadius: 0.5
    agentHeight: 2
    agentSlope: 45
    agentClimb: 0.4
    ledgeDropHeight: 0
    maxJumpAcrossDistance: 0
    minRegionArea: 2
    manualCellSize: 0
    cellSize: 0.16666667
    manualTileSize: 0
    tileSize: 256
    accuratePlacement: 0
    debug:
      m_Flags: 0
  m_NavMeshData: {fileID: 0}
--- !u!1 &13893448
GameObject:
  m_ObjectHideFlags: 0
  m_CorrespondingSourceObject: {fileID: 159836, guid: 082fa50d1fb955f41a9e8d559d3f39e6,
    type: 2}
  m_PrefabInternal: {fileID: 1293721599}
  serializedVersion: 6
  m_Component:
  - component: {fileID: 1283181916}
  - component: {fileID: 13893451}
  - component: {fileID: 13893450}
  - component: {fileID: 13893449}
  m_Layer: 0
  m_Name: V1_T2_S6
  m_TagString: Untagged
  m_Icon: {fileID: 0}
  m_NavMeshLayer: 0
  m_StaticEditorFlags: 0
  m_IsActive: 1
--- !u!64 &13893449
MeshCollider:
  m_ObjectHideFlags: 0
  m_CorrespondingSourceObject: {fileID: 6422500, guid: 082fa50d1fb955f41a9e8d559d3f39e6,
    type: 2}
  m_PrefabInternal: {fileID: 1293721599}
  m_GameObject: {fileID: 13893448}
  m_Material: {fileID: 0}
  m_IsTrigger: 0
  m_Enabled: 1
  serializedVersion: 3
  m_Convex: 0
  m_CookingOptions: 14
  m_SkinWidth: 0.01
  m_Mesh: {fileID: 4300000, guid: 3d5582b4ee67b6142b933c19769451a2, type: 3}
--- !u!23 &13893450
MeshRenderer:
  m_ObjectHideFlags: 0
  m_CorrespondingSourceObject: {fileID: 2321250, guid: 082fa50d1fb955f41a9e8d559d3f39e6,
    type: 2}
  m_PrefabInternal: {fileID: 1293721599}
  m_GameObject: {fileID: 13893448}
  m_Enabled: 1
  m_CastShadows: 1
  m_ReceiveShadows: 1
  m_DynamicOccludee: 1
  m_MotionVectors: 1
  m_LightProbeUsage: 1
  m_ReflectionProbeUsage: 1
  m_RenderingLayerMask: 4294967295
  m_Materials:
  - {fileID: 2100000, guid: d482c9929e395d64f866927adf653efb, type: 2}
  m_StaticBatchInfo:
    firstSubMesh: 0
    subMeshCount: 0
  m_StaticBatchRoot: {fileID: 0}
  m_ProbeAnchor: {fileID: 0}
  m_LightProbeVolumeOverride: {fileID: 0}
  m_ScaleInLightmap: 1
  m_PreserveUVs: 0
  m_IgnoreNormalsForChartDetection: 0
  m_ImportantGI: 0
  m_StitchLightmapSeams: 0
  m_SelectedEditorRenderState: 3
  m_MinimumChartSize: 4
  m_AutoUVMaxDistance: 0.5
  m_AutoUVMaxAngle: 89
  m_LightmapParameters: {fileID: 0}
  m_SortingLayerID: 0
  m_SortingLayer: 0
  m_SortingOrder: 0
--- !u!33 &13893451
MeshFilter:
  m_ObjectHideFlags: 0
  m_CorrespondingSourceObject: {fileID: 3360786, guid: 082fa50d1fb955f41a9e8d559d3f39e6,
    type: 2}
  m_PrefabInternal: {fileID: 1293721599}
  m_GameObject: {fileID: 13893448}
  m_Mesh: {fileID: 4300000, guid: 5620a09226f109343943f01b6efcd974, type: 3}
--- !u!1 &80424136
GameObject:
  m_ObjectHideFlags: 0
  m_CorrespondingSourceObject: {fileID: 155158, guid: 48667392d0f3a0840908c9cfde01c9ba,
    type: 2}
  m_PrefabInternal: {fileID: 1451689083}
  serializedVersion: 6
  m_Component:
  - component: {fileID: 460427677}
  - component: {fileID: 80424139}
  - component: {fileID: 80424138}
  - component: {fileID: 80424137}
  m_Layer: 0
  m_Name: V1_T1_S3
  m_TagString: Untagged
  m_Icon: {fileID: 0}
  m_NavMeshLayer: 0
  m_StaticEditorFlags: 0
  m_IsActive: 1
--- !u!64 &80424137
MeshCollider:
  m_ObjectHideFlags: 0
  m_CorrespondingSourceObject: {fileID: 6426344, guid: 48667392d0f3a0840908c9cfde01c9ba,
    type: 2}
  m_PrefabInternal: {fileID: 1451689083}
  m_GameObject: {fileID: 80424136}
  m_Material: {fileID: 0}
  m_IsTrigger: 0
  m_Enabled: 1
  serializedVersion: 3
  m_Convex: 0
  m_CookingOptions: 14
  m_SkinWidth: 0.01
  m_Mesh: {fileID: 4300000, guid: 3d5582b4ee67b6142b933c19769451a2, type: 3}
--- !u!23 &80424138
MeshRenderer:
  m_ObjectHideFlags: 0
  m_CorrespondingSourceObject: {fileID: 2346622, guid: 48667392d0f3a0840908c9cfde01c9ba,
    type: 2}
  m_PrefabInternal: {fileID: 1451689083}
  m_GameObject: {fileID: 80424136}
  m_Enabled: 1
  m_CastShadows: 1
  m_ReceiveShadows: 1
  m_DynamicOccludee: 1
  m_MotionVectors: 1
  m_LightProbeUsage: 1
  m_ReflectionProbeUsage: 1
  m_RenderingLayerMask: 4294967295
  m_Materials:
  - {fileID: 2100000, guid: 1357fd804a87bd446b7cc45d02f52104, type: 2}
  m_StaticBatchInfo:
    firstSubMesh: 0
    subMeshCount: 0
  m_StaticBatchRoot: {fileID: 0}
  m_ProbeAnchor: {fileID: 0}
  m_LightProbeVolumeOverride: {fileID: 0}
  m_ScaleInLightmap: 1
  m_PreserveUVs: 0
  m_IgnoreNormalsForChartDetection: 0
  m_ImportantGI: 0
  m_StitchLightmapSeams: 0
  m_SelectedEditorRenderState: 3
  m_MinimumChartSize: 4
  m_AutoUVMaxDistance: 0.5
  m_AutoUVMaxAngle: 89
  m_LightmapParameters: {fileID: 0}
  m_SortingLayerID: 0
  m_SortingLayer: 0
  m_SortingOrder: 0
--- !u!33 &80424139
MeshFilter:
  m_ObjectHideFlags: 0
  m_CorrespondingSourceObject: {fileID: 3311076, guid: 48667392d0f3a0840908c9cfde01c9ba,
    type: 2}
  m_PrefabInternal: {fileID: 1451689083}
  m_GameObject: {fileID: 80424136}
  m_Mesh: {fileID: 4300000, guid: 781e3ddc9a93b8a4683cf8bf148763c9, type: 3}
--- !u!1 &85468249
GameObject:
  m_ObjectHideFlags: 0
  m_CorrespondingSourceObject: {fileID: 119404, guid: 92f8eae6b9cd89041adc44709b6a9791,
    type: 2}
  m_PrefabInternal: {fileID: 1074447418}
  serializedVersion: 6
  m_Component:
  - component: {fileID: 1079119360}
  - component: {fileID: 85468252}
  - component: {fileID: 85468251}
  - component: {fileID: 85468250}
  m_Layer: 0
  m_Name: V1_T1_S1
  m_TagString: Untagged
  m_Icon: {fileID: 0}
  m_NavMeshLayer: 0
  m_StaticEditorFlags: 0
  m_IsActive: 1
--- !u!64 &85468250
MeshCollider:
  m_ObjectHideFlags: 0
  m_CorrespondingSourceObject: {fileID: 6401240, guid: 92f8eae6b9cd89041adc44709b6a9791,
    type: 2}
  m_PrefabInternal: {fileID: 1074447418}
  m_GameObject: {fileID: 85468249}
  m_Material: {fileID: 0}
  m_IsTrigger: 0
  m_Enabled: 1
  serializedVersion: 3
  m_Convex: 0
  m_CookingOptions: 14
  m_SkinWidth: 0.01
  m_Mesh: {fileID: 4300000, guid: 3d5582b4ee67b6142b933c19769451a2, type: 3}
--- !u!23 &85468251
MeshRenderer:
  m_ObjectHideFlags: 0
  m_CorrespondingSourceObject: {fileID: 2380636, guid: 92f8eae6b9cd89041adc44709b6a9791,
    type: 2}
  m_PrefabInternal: {fileID: 1074447418}
  m_GameObject: {fileID: 85468249}
  m_Enabled: 1
  m_CastShadows: 1
  m_ReceiveShadows: 1
  m_DynamicOccludee: 1
  m_MotionVectors: 1
  m_LightProbeUsage: 1
  m_ReflectionProbeUsage: 1
  m_RenderingLayerMask: 4294967295
  m_Materials:
  - {fileID: 2100000, guid: d15382853af1aa14daf50bfe726fd7c9, type: 2}
  m_StaticBatchInfo:
    firstSubMesh: 0
    subMeshCount: 0
  m_StaticBatchRoot: {fileID: 0}
  m_ProbeAnchor: {fileID: 0}
  m_LightProbeVolumeOverride: {fileID: 0}
  m_ScaleInLightmap: 1
  m_PreserveUVs: 0
  m_IgnoreNormalsForChartDetection: 0
  m_ImportantGI: 0
  m_StitchLightmapSeams: 0
  m_SelectedEditorRenderState: 3
  m_MinimumChartSize: 4
  m_AutoUVMaxDistance: 0.5
  m_AutoUVMaxAngle: 89
  m_LightmapParameters: {fileID: 0}
  m_SortingLayerID: 0
  m_SortingLayer: 0
  m_SortingOrder: 0
--- !u!33 &85468252
MeshFilter:
  m_ObjectHideFlags: 0
  m_CorrespondingSourceObject: {fileID: 3311064, guid: 92f8eae6b9cd89041adc44709b6a9791,
    type: 2}
  m_PrefabInternal: {fileID: 1074447418}
  m_GameObject: {fileID: 85468249}
  m_Mesh: {fileID: 4300000, guid: 781e3ddc9a93b8a4683cf8bf148763c9, type: 3}
--- !u!1001 &109307139
Prefab:
  m_ObjectHideFlags: 0
  serializedVersion: 2
  m_Modification:
    m_TransformParent: {fileID: 118307822}
    m_Modifications:
    - target: {fileID: 481378, guid: 1b72e8ef40d1d994b8b788fb146d7edc, type: 2}
      propertyPath: m_LocalPosition.x
      value: -0.58865815
      objectReference: {fileID: 0}
    - target: {fileID: 481378, guid: 1b72e8ef40d1d994b8b788fb146d7edc, type: 2}
      propertyPath: m_LocalPosition.y
      value: 0.13045657
      objectReference: {fileID: 0}
    - target: {fileID: 481378, guid: 1b72e8ef40d1d994b8b788fb146d7edc, type: 2}
      propertyPath: m_LocalPosition.z
      value: 11.484792
      objectReference: {fileID: 0}
    - target: {fileID: 481378, guid: 1b72e8ef40d1d994b8b788fb146d7edc, type: 2}
      propertyPath: m_LocalRotation.x
      value: 0
      objectReference: {fileID: 0}
    - target: {fileID: 481378, guid: 1b72e8ef40d1d994b8b788fb146d7edc, type: 2}
      propertyPath: m_LocalRotation.y
      value: 0
      objectReference: {fileID: 0}
    - target: {fileID: 481378, guid: 1b72e8ef40d1d994b8b788fb146d7edc, type: 2}
      propertyPath: m_LocalRotation.z
      value: 0
      objectReference: {fileID: 0}
    - target: {fileID: 481378, guid: 1b72e8ef40d1d994b8b788fb146d7edc, type: 2}
      propertyPath: m_LocalRotation.w
      value: 1
      objectReference: {fileID: 0}
    - target: {fileID: 481378, guid: 1b72e8ef40d1d994b8b788fb146d7edc, type: 2}
      propertyPath: m_RootOrder
      value: 5
      objectReference: {fileID: 0}
    m_RemovedComponents: []
  m_SourcePrefab: {fileID: 100100000, guid: 1b72e8ef40d1d994b8b788fb146d7edc, type: 2}
  m_RootGameObject: {fileID: 1171313136}
  m_IsPrefabAsset: 0
--- !u!1 &118307821
GameObject:
  m_ObjectHideFlags: 0
  m_CorrespondingSourceObject: {fileID: 0}
  m_PrefabInternal: {fileID: 0}
  serializedVersion: 6
  m_Component:
  - component: {fileID: 118307822}
  m_Layer: 0
  m_Name: T1
  m_TagString: Untagged
  m_Icon: {fileID: 0}
  m_NavMeshLayer: 0
  m_StaticEditorFlags: 0
  m_IsActive: 1
--- !u!4 &118307822
Transform:
  m_ObjectHideFlags: 0
  m_CorrespondingSourceObject: {fileID: 0}
  m_PrefabInternal: {fileID: 0}
  m_GameObject: {fileID: 118307821}
  m_LocalRotation: {x: 0, y: 0, z: 0, w: 1}
  m_LocalPosition: {x: 0.58865815, y: -0.13045657, z: 2.7252083}
  m_LocalScale: {x: 1, y: 1, z: 1}
  m_Children:
  - {fileID: 1079119360}
  - {fileID: 793428021}
  - {fileID: 460427677}
  - {fileID: 1967984268}
  - {fileID: 290445086}
  - {fileID: 673416604}
  m_Father: {fileID: 0}
  m_RootOrder: 2
  m_LocalEulerAnglesHint: {x: 0, y: 0, z: 0}
--- !u!4 &290445086
Transform:
  m_ObjectHideFlags: 0
  m_CorrespondingSourceObject: {fileID: 498670, guid: a997eceec76e3ec47ba0cfa16bd8ecf0,
    type: 2}
  m_PrefabInternal: {fileID: 1100600620}
  m_GameObject: {fileID: 1519584208}
  m_LocalRotation: {x: 0, y: 0, z: 0, w: 1}
  m_LocalPosition: {x: -0.58865815, y: 0.13045657, z: 8.704792}
  m_LocalScale: {x: 1, y: 1, z: 1}
  m_Children: []
  m_Father: {fileID: 118307822}
  m_RootOrder: 4
  m_LocalEulerAnglesHint: {x: 0, y: 0, z: 0}
--- !u!4 &361643283
Transform:
  m_ObjectHideFlags: 0
  m_CorrespondingSourceObject: {fileID: 472742, guid: 558c8282b60471344bb6abd6cd7d800c,
    type: 2}
  m_PrefabInternal: {fileID: 1762167624}
  m_GameObject: {fileID: 1105553619}
  m_LocalRotation: {x: 0, y: 0, z: 0, w: 1}
  m_LocalPosition: {x: -0.47865814, y: 0.13045657, z: 16.994791}
  m_LocalScale: {x: 1, y: 1, z: 1}
  m_Children: []
  m_Father: {fileID: 684034245}
  m_RootOrder: 0
  m_LocalEulerAnglesHint: {x: 0, y: 0, z: 0}
--- !u!4 &365265409
Transform:
  m_ObjectHideFlags: 0
  m_CorrespondingSourceObject: {fileID: 456168, guid: 0993ac6bb0c93b44f9426215366bbb86,
    type: 2}
  m_PrefabInternal: {fileID: 1098867852}
  m_GameObject: {fileID: 1733980134}
  m_LocalRotation: {x: 0, y: 0, z: 0, w: 1}
  m_LocalPosition: {x: -0.47865814, y: 0.13045657, z: 20.104792}
  m_LocalScale: {x: 1, y: 1, z: 1}
  m_Children: []
  m_Father: {fileID: 684034245}
  m_RootOrder: 1
  m_LocalEulerAnglesHint: {x: 0, y: 0, z: 0}
--- !u!4 &460427677
Transform:
  m_ObjectHideFlags: 0
  m_CorrespondingSourceObject: {fileID: 441738, guid: 48667392d0f3a0840908c9cfde01c9ba,
    type: 2}
  m_PrefabInternal: {fileID: 1451689083}
  m_GameObject: {fileID: 80424136}
  m_LocalRotation: {x: 0, y: 0, z: 0, w: 1}
  m_LocalPosition: {x: -0.58865815, y: 0.13045657, z: 2.9687915}
  m_LocalScale: {x: 1, y: 1, z: 1}
  m_Children: []
  m_Father: {fileID: 118307822}
  m_RootOrder: 2
  m_LocalEulerAnglesHint: {x: 0, y: 0, z: 0}
--- !u!4 &673416604
Transform:
  m_ObjectHideFlags: 0
  m_CorrespondingSourceObject: {fileID: 481378, guid: 1b72e8ef40d1d994b8b788fb146d7edc,
    type: 2}
  m_PrefabInternal: {fileID: 109307139}
  m_GameObject: {fileID: 1171313136}
  m_LocalRotation: {x: 0, y: 0, z: 0, w: 1}
  m_LocalPosition: {x: -0.58865815, y: 0.13045657, z: 11.484792}
  m_LocalScale: {x: 1, y: 1, z: 1}
  m_Children: []
  m_Father: {fileID: 118307822}
  m_RootOrder: 5
  m_LocalEulerAnglesHint: {x: 0, y: 0, z: 0}
--- !u!1 &684034244
GameObject:
  m_ObjectHideFlags: 0
  m_CorrespondingSourceObject: {fileID: 0}
  m_PrefabInternal: {fileID: 0}
  serializedVersion: 6
  m_Component:
  - component: {fileID: 684034245}
  m_Layer: 0
  m_Name: T2
  m_TagString: Untagged
  m_Icon: {fileID: 0}
  m_NavMeshLayer: 0
  m_StaticEditorFlags: 0
  m_IsActive: 1
--- !u!4 &684034245
Transform:
  m_ObjectHideFlags: 0
  m_CorrespondingSourceObject: {fileID: 0}
  m_PrefabInternal: {fileID: 0}
  m_GameObject: {fileID: 684034244}
  m_LocalRotation: {x: 0, y: 0, z: 0, w: 1}
  m_LocalPosition: {x: 0.58865815, y: -0.13045657, z: 2.7252083}
  m_LocalScale: {x: 1, y: 1, z: 1}
  m_Children:
  - {fileID: 361643283}
  - {fileID: 365265409}
  - {fileID: 1224535993}
  - {fileID: 1881520168}
  - {fileID: 1761412813}
  - {fileID: 1283181916}
  m_Father: {fileID: 0}
  m_RootOrder: 3
  m_LocalEulerAnglesHint: {x: 0, y: 0, z: 0}
--- !u!1 &729147535
GameObject:
  m_ObjectHideFlags: 0
  m_CorrespondingSourceObject: {fileID: 107168, guid: 5eee0ef564f68bc489f8b8dde7899c02,
    type: 2}
  m_PrefabInternal: {fileID: 874217469}
  serializedVersion: 6
  m_Component:
  - component: {fileID: 1881520168}
  - component: {fileID: 729147538}
  - component: {fileID: 729147537}
  - component: {fileID: 729147536}
  m_Layer: 0
  m_Name: V1_T2_S4
  m_TagString: Untagged
  m_Icon: {fileID: 0}
  m_NavMeshLayer: 0
  m_StaticEditorFlags: 0
  m_IsActive: 1
--- !u!64 &729147536
MeshCollider:
  m_ObjectHideFlags: 0
  m_CorrespondingSourceObject: {fileID: 6494642, guid: 5eee0ef564f68bc489f8b8dde7899c02,
    type: 2}
  m_PrefabInternal: {fileID: 874217469}
  m_GameObject: {fileID: 729147535}
  m_Material: {fileID: 0}
  m_IsTrigger: 0
  m_Enabled: 1
  serializedVersion: 3
  m_Convex: 0
  m_CookingOptions: 14
  m_SkinWidth: 0.01
  m_Mesh: {fileID: 4300000, guid: 3d5582b4ee67b6142b933c19769451a2, type: 3}
--- !u!23 &729147537
MeshRenderer:
  m_ObjectHideFlags: 0
  m_CorrespondingSourceObject: {fileID: 2349356, guid: 5eee0ef564f68bc489f8b8dde7899c02,
    type: 2}
  m_PrefabInternal: {fileID: 874217469}
  m_GameObject: {fileID: 729147535}
  m_Enabled: 1
  m_CastShadows: 1
  m_ReceiveShadows: 1
  m_DynamicOccludee: 1
  m_MotionVectors: 1
  m_LightProbeUsage: 1
  m_ReflectionProbeUsage: 1
  m_RenderingLayerMask: 4294967295
  m_Materials:
  - {fileID: 2100000, guid: 0b878bafb7877fd46aa38fde586523b2, type: 2}
  m_StaticBatchInfo:
    firstSubMesh: 0
    subMeshCount: 0
  m_StaticBatchRoot: {fileID: 0}
  m_ProbeAnchor: {fileID: 0}
  m_LightProbeVolumeOverride: {fileID: 0}
  m_ScaleInLightmap: 1
  m_PreserveUVs: 0
  m_IgnoreNormalsForChartDetection: 0
  m_ImportantGI: 0
  m_StitchLightmapSeams: 0
  m_SelectedEditorRenderState: 3
  m_MinimumChartSize: 4
  m_AutoUVMaxDistance: 0.5
  m_AutoUVMaxAngle: 89
  m_LightmapParameters: {fileID: 0}
  m_SortingLayerID: 0
  m_SortingLayer: 0
  m_SortingOrder: 0
--- !u!33 &729147538
MeshFilter:
  m_ObjectHideFlags: 0
  m_CorrespondingSourceObject: {fileID: 3305970, guid: 5eee0ef564f68bc489f8b8dde7899c02,
    type: 2}
  m_PrefabInternal: {fileID: 874217469}
  m_GameObject: {fileID: 729147535}
  m_Mesh: {fileID: 4300000, guid: 5620a09226f109343943f01b6efcd974, type: 3}
--- !u!4 &793428021
Transform:
  m_ObjectHideFlags: 0
  m_CorrespondingSourceObject: {fileID: 435304, guid: 526a7966ccaa21a478875fa72207388c,
    type: 2}
  m_PrefabInternal: {fileID: 1337284693}
  m_GameObject: {fileID: 1205281520}
  m_LocalRotation: {x: 0, y: 0, z: 0, w: 1}
  m_LocalPosition: {x: -0.58865815, y: 0.13045657, z: 0.08779168}
  m_LocalScale: {x: 1, y: 1, z: 1}
  m_Children: []
  m_Father: {fileID: 118307822}
  m_RootOrder: 1
  m_LocalEulerAnglesHint: {x: 0, y: 0, z: 0}
--- !u!1001 &874217469
Prefab:
  m_ObjectHideFlags: 0
  serializedVersion: 2
  m_Modification:
    m_TransformParent: {fileID: 684034245}
    m_Modifications:
    - target: {fileID: 406496, guid: 5eee0ef564f68bc489f8b8dde7899c02, type: 2}
      propertyPath: m_LocalPosition.x
      value: -0.47865814
      objectReference: {fileID: 0}
    - target: {fileID: 406496, guid: 5eee0ef564f68bc489f8b8dde7899c02, type: 2}
      propertyPath: m_LocalPosition.y
      value: 0.13045657
      objectReference: {fileID: 0}
    - target: {fileID: 406496, guid: 5eee0ef564f68bc489f8b8dde7899c02, type: 2}
      propertyPath: m_LocalPosition.z
      value: 26.214792
      objectReference: {fileID: 0}
    - target: {fileID: 406496, guid: 5eee0ef564f68bc489f8b8dde7899c02, type: 2}
      propertyPath: m_LocalRotation.x
      value: 0
      objectReference: {fileID: 0}
    - target: {fileID: 406496, guid: 5eee0ef564f68bc489f8b8dde7899c02, type: 2}
      propertyPath: m_LocalRotation.y
      value: 0
      objectReference: {fileID: 0}
    - target: {fileID: 406496, guid: 5eee0ef564f68bc489f8b8dde7899c02, type: 2}
      propertyPath: m_LocalRotation.z
      value: 0
      objectReference: {fileID: 0}
    - target: {fileID: 406496, guid: 5eee0ef564f68bc489f8b8dde7899c02, type: 2}
      propertyPath: m_LocalRotation.w
      value: 1
      objectReference: {fileID: 0}
    - target: {fileID: 406496, guid: 5eee0ef564f68bc489f8b8dde7899c02, type: 2}
      propertyPath: m_RootOrder
      value: 3
      objectReference: {fileID: 0}
    m_RemovedComponents: []
  m_SourcePrefab: {fileID: 100100000, guid: 5eee0ef564f68bc489f8b8dde7899c02, type: 2}
  m_RootGameObject: {fileID: 729147535}
  m_IsPrefabAsset: 0
--- !u!1 &1036338388
GameObject:
  m_ObjectHideFlags: 0
  m_CorrespondingSourceObject: {fileID: 0}
  m_PrefabInternal: {fileID: 0}
  serializedVersion: 6
  m_Component:
  - component: {fileID: 1036338390}
  - component: {fileID: 1036338389}
  m_Layer: 0
  m_Name: Directional Light
  m_TagString: Untagged
  m_Icon: {fileID: 0}
  m_NavMeshLayer: 0
  m_StaticEditorFlags: 0
  m_IsActive: 1
--- !u!108 &1036338389
Light:
  m_ObjectHideFlags: 0
  m_CorrespondingSourceObject: {fileID: 0}
  m_PrefabInternal: {fileID: 0}
  m_GameObject: {fileID: 1036338388}
  m_Enabled: 1
  serializedVersion: 8
  m_Type: 1
  m_Color: {r: 1, g: 0.95686275, b: 0.8392157, a: 1}
  m_Intensity: 1
  m_Range: 10
  m_SpotAngle: 30
  m_CookieSize: 10
  m_Shadows:
    m_Type: 2
    m_Resolution: -1
    m_CustomResolution: -1
    m_Strength: 1
    m_Bias: 0.05
    m_NormalBias: 0.4
    m_NearPlane: 0.2
  m_Cookie: {fileID: 0}
  m_DrawHalo: 0
  m_Flare: {fileID: 0}
  m_RenderMode: 0
  m_CullingMask:
    serializedVersion: 2
    m_Bits: 4294967295
  m_Lightmapping: 4
  m_LightShadowCasterMode: 0
  m_AreaSize: {x: 1, y: 1}
  m_BounceIntensity: 7.05
  m_ColorTemperature: 6570
  m_UseColorTemperature: 0
  m_ShadowRadius: 0
  m_ShadowAngle: 0
--- !u!4 &1036338390
Transform:
  m_ObjectHideFlags: 0
  m_CorrespondingSourceObject: {fileID: 0}
  m_PrefabInternal: {fileID: 0}
  m_GameObject: {fileID: 1036338388}
  m_LocalRotation: {x: -0.15047845, y: 0.6194875, z: -0.2766151, w: 0.7190797}
  m_LocalPosition: {x: -15.68, y: 3.63, z: 4.59}
  m_LocalScale: {x: 1, y: 1, z: 1}
  m_Children: []
  m_Father: {fileID: 0}
  m_RootOrder: 1
  m_LocalEulerAnglesHint: {x: 0, y: 0, z: 0}
--- !u!1001 &1074447418
Prefab:
  m_ObjectHideFlags: 0
  serializedVersion: 2
  m_Modification:
    m_TransformParent: {fileID: 118307822}
    m_Modifications:
    - target: {fileID: 491450, guid: 92f8eae6b9cd89041adc44709b6a9791, type: 2}
      propertyPath: m_LocalPosition.x
      value: -0.58865815
      objectReference: {fileID: 0}
    - target: {fileID: 491450, guid: 92f8eae6b9cd89041adc44709b6a9791, type: 2}
      propertyPath: m_LocalPosition.y
      value: 0.13045657
      objectReference: {fileID: 0}
    - target: {fileID: 491450, guid: 92f8eae6b9cd89041adc44709b6a9791, type: 2}
      propertyPath: m_LocalPosition.z
      value: -2.7252083
      objectReference: {fileID: 0}
    - target: {fileID: 491450, guid: 92f8eae6b9cd89041adc44709b6a9791, type: 2}
      propertyPath: m_LocalRotation.x
      value: 0
      objectReference: {fileID: 0}
    - target: {fileID: 491450, guid: 92f8eae6b9cd89041adc44709b6a9791, type: 2}
      propertyPath: m_LocalRotation.y
      value: 0
      objectReference: {fileID: 0}
    - target: {fileID: 491450, guid: 92f8eae6b9cd89041adc44709b6a9791, type: 2}
      propertyPath: m_LocalRotation.z
      value: 0
      objectReference: {fileID: 0}
    - target: {fileID: 491450, guid: 92f8eae6b9cd89041adc44709b6a9791, type: 2}
      propertyPath: m_LocalRotation.w
      value: 1
      objectReference: {fileID: 0}
    - target: {fileID: 491450, guid: 92f8eae6b9cd89041adc44709b6a9791, type: 2}
      propertyPath: m_RootOrder
      value: 0
      objectReference: {fileID: 0}
    m_RemovedComponents: []
  m_SourcePrefab: {fileID: 100100000, guid: 92f8eae6b9cd89041adc44709b6a9791, type: 2}
  m_RootGameObject: {fileID: 85468249}
  m_IsPrefabAsset: 0
--- !u!4 &1079119360
Transform:
  m_ObjectHideFlags: 0
  m_CorrespondingSourceObject: {fileID: 491450, guid: 92f8eae6b9cd89041adc44709b6a9791,
    type: 2}
  m_PrefabInternal: {fileID: 1074447418}
  m_GameObject: {fileID: 85468249}
  m_LocalRotation: {x: 0, y: 0, z: 0, w: 1}
  m_LocalPosition: {x: -0.58865815, y: 0.13045657, z: -2.7252083}
  m_LocalScale: {x: 1, y: 1, z: 1}
  m_Children: []
  m_Father: {fileID: 118307822}
  m_RootOrder: 0
  m_LocalEulerAnglesHint: {x: 0, y: 0, z: 0}
--- !u!1001 &1098867852
Prefab:
  m_ObjectHideFlags: 0
  serializedVersion: 2
  m_Modification:
    m_TransformParent: {fileID: 684034245}
    m_Modifications:
    - target: {fileID: 456168, guid: 0993ac6bb0c93b44f9426215366bbb86, type: 2}
      propertyPath: m_LocalPosition.x
      value: -0.47865814
      objectReference: {fileID: 0}
    - target: {fileID: 456168, guid: 0993ac6bb0c93b44f9426215366bbb86, type: 2}
      propertyPath: m_LocalPosition.y
      value: 0.13045657
      objectReference: {fileID: 0}
    - target: {fileID: 456168, guid: 0993ac6bb0c93b44f9426215366bbb86, type: 2}
      propertyPath: m_LocalPosition.z
      value: 20.104792
      objectReference: {fileID: 0}
    - target: {fileID: 456168, guid: 0993ac6bb0c93b44f9426215366bbb86, type: 2}
      propertyPath: m_LocalRotation.x
      value: 0
      objectReference: {fileID: 0}
    - target: {fileID: 456168, guid: 0993ac6bb0c93b44f9426215366bbb86, type: 2}
      propertyPath: m_LocalRotation.y
      value: 0
      objectReference: {fileID: 0}
    - target: {fileID: 456168, guid: 0993ac6bb0c93b44f9426215366bbb86, type: 2}
      propertyPath: m_LocalRotation.z
      value: 0
      objectReference: {fileID: 0}
    - target: {fileID: 456168, guid: 0993ac6bb0c93b44f9426215366bbb86, type: 2}
      propertyPath: m_LocalRotation.w
      value: 1
      objectReference: {fileID: 0}
    - target: {fileID: 456168, guid: 0993ac6bb0c93b44f9426215366bbb86, type: 2}
      propertyPath: m_RootOrder
      value: 1
      objectReference: {fileID: 0}
    m_RemovedComponents: []
  m_SourcePrefab: {fileID: 100100000, guid: 0993ac6bb0c93b44f9426215366bbb86, type: 2}
  m_RootGameObject: {fileID: 1733980134}
  m_IsPrefabAsset: 0
--- !u!1001 &1100600620
Prefab:
  m_ObjectHideFlags: 0
  serializedVersion: 2
  m_Modification:
    m_TransformParent: {fileID: 118307822}
    m_Modifications:
    - target: {fileID: 498670, guid: a997eceec76e3ec47ba0cfa16bd8ecf0, type: 2}
      propertyPath: m_LocalPosition.x
      value: -0.58865815
      objectReference: {fileID: 0}
    - target: {fileID: 498670, guid: a997eceec76e3ec47ba0cfa16bd8ecf0, type: 2}
      propertyPath: m_LocalPosition.y
      value: 0.13045657
      objectReference: {fileID: 0}
    - target: {fileID: 498670, guid: a997eceec76e3ec47ba0cfa16bd8ecf0, type: 2}
      propertyPath: m_LocalPosition.z
      value: 8.704792
      objectReference: {fileID: 0}
    - target: {fileID: 498670, guid: a997eceec76e3ec47ba0cfa16bd8ecf0, type: 2}
      propertyPath: m_LocalRotation.x
      value: 0
      objectReference: {fileID: 0}
    - target: {fileID: 498670, guid: a997eceec76e3ec47ba0cfa16bd8ecf0, type: 2}
      propertyPath: m_LocalRotation.y
      value: 0
      objectReference: {fileID: 0}
    - target: {fileID: 498670, guid: a997eceec76e3ec47ba0cfa16bd8ecf0, type: 2}
      propertyPath: m_LocalRotation.z
      value: 0
      objectReference: {fileID: 0}
    - target: {fileID: 498670, guid: a997eceec76e3ec47ba0cfa16bd8ecf0, type: 2}
      propertyPath: m_LocalRotation.w
      value: 1
      objectReference: {fileID: 0}
    - target: {fileID: 498670, guid: a997eceec76e3ec47ba0cfa16bd8ecf0, type: 2}
      propertyPath: m_RootOrder
      value: 4
      objectReference: {fileID: 0}
    m_RemovedComponents: []
  m_SourcePrefab: {fileID: 100100000, guid: a997eceec76e3ec47ba0cfa16bd8ecf0, type: 2}
  m_RootGameObject: {fileID: 1519584208}
  m_IsPrefabAsset: 0
--- !u!1 &1105553619
GameObject:
  m_ObjectHideFlags: 0
  m_CorrespondingSourceObject: {fileID: 113480, guid: 558c8282b60471344bb6abd6cd7d800c,
    type: 2}
  m_PrefabInternal: {fileID: 1762167624}
  serializedVersion: 6
  m_Component:
  - component: {fileID: 361643283}
  - component: {fileID: 1105553622}
  - component: {fileID: 1105553621}
  - component: {fileID: 1105553620}
  m_Layer: 0
  m_Name: V1_T2_S1
  m_TagString: Untagged
  m_Icon: {fileID: 0}
  m_NavMeshLayer: 0
  m_StaticEditorFlags: 0
  m_IsActive: 1
--- !u!64 &1105553620
MeshCollider:
  m_ObjectHideFlags: 0
  m_CorrespondingSourceObject: {fileID: 6426858, guid: 558c8282b60471344bb6abd6cd7d800c,
    type: 2}
  m_PrefabInternal: {fileID: 1762167624}
  m_GameObject: {fileID: 1105553619}
  m_Material: {fileID: 0}
  m_IsTrigger: 0
  m_Enabled: 1
  serializedVersion: 3
  m_Convex: 0
  m_CookingOptions: 14
  m_SkinWidth: 0.01
  m_Mesh: {fileID: 4300000, guid: 3d5582b4ee67b6142b933c19769451a2, type: 3}
--- !u!23 &1105553621
MeshRenderer:
  m_ObjectHideFlags: 0
  m_CorrespondingSourceObject: {fileID: 2356164, guid: 558c8282b60471344bb6abd6cd7d800c,
    type: 2}
  m_PrefabInternal: {fileID: 1762167624}
  m_GameObject: {fileID: 1105553619}
  m_Enabled: 1
  m_CastShadows: 1
  m_ReceiveShadows: 1
  m_DynamicOccludee: 1
  m_MotionVectors: 1
  m_LightProbeUsage: 1
  m_ReflectionProbeUsage: 1
  m_RenderingLayerMask: 4294967295
  m_Materials:
  - {fileID: 2100000, guid: 6ff5bdad20f027f4eb4c666507ba5e57, type: 2}
  m_StaticBatchInfo:
    firstSubMesh: 0
    subMeshCount: 0
  m_StaticBatchRoot: {fileID: 0}
  m_ProbeAnchor: {fileID: 0}
  m_LightProbeVolumeOverride: {fileID: 0}
  m_ScaleInLightmap: 1
  m_PreserveUVs: 0
  m_IgnoreNormalsForChartDetection: 0
  m_ImportantGI: 0
  m_StitchLightmapSeams: 0
  m_SelectedEditorRenderState: 3
  m_MinimumChartSize: 4
  m_AutoUVMaxDistance: 0.5
  m_AutoUVMaxAngle: 89
  m_LightmapParameters: {fileID: 0}
  m_SortingLayerID: 0
  m_SortingLayer: 0
  m_SortingOrder: 0
--- !u!33 &1105553622
MeshFilter:
  m_ObjectHideFlags: 0
  m_CorrespondingSourceObject: {fileID: 3394118, guid: 558c8282b60471344bb6abd6cd7d800c,
    type: 2}
  m_PrefabInternal: {fileID: 1762167624}
  m_GameObject: {fileID: 1105553619}
  m_Mesh: {fileID: 4300000, guid: 5620a09226f109343943f01b6efcd974, type: 3}
--- !u!1 &1146005594
GameObject:
  m_ObjectHideFlags: 0
  m_CorrespondingSourceObject: {fileID: 0}
  m_PrefabInternal: {fileID: 0}
  serializedVersion: 6
  m_Component:
  - component: {fileID: 1146005599}
  - component: {fileID: 1146005598}
  - component: {fileID: 1146005597}
  - component: {fileID: 1146005596}
  - component: {fileID: 1146005595}
  m_Layer: 0
  m_Name: Main Camera
  m_TagString: MainCamera
  m_Icon: {fileID: 0}
  m_NavMeshLayer: 0
  m_StaticEditorFlags: 0
  m_IsActive: 1
--- !u!81 &1146005595
AudioListener:
  m_ObjectHideFlags: 0
  m_CorrespondingSourceObject: {fileID: 0}
  m_PrefabInternal: {fileID: 0}
  m_GameObject: {fileID: 1146005594}
  m_Enabled: 1
--- !u!124 &1146005596
Behaviour:
  m_ObjectHideFlags: 0
  m_CorrespondingSourceObject: {fileID: 0}
  m_PrefabInternal: {fileID: 0}
  m_GameObject: {fileID: 1146005594}
  m_Enabled: 1
--- !u!92 &1146005597
Behaviour:
  m_ObjectHideFlags: 0
  m_CorrespondingSourceObject: {fileID: 0}
  m_PrefabInternal: {fileID: 0}
  m_GameObject: {fileID: 1146005594}
  m_Enabled: 1
--- !u!20 &1146005598
Camera:
  m_ObjectHideFlags: 0
  m_CorrespondingSourceObject: {fileID: 0}
  m_PrefabInternal: {fileID: 0}
  m_GameObject: {fileID: 1146005594}
  m_Enabled: 1
  serializedVersion: 2
  m_ClearFlags: 1
  m_BackGroundColor: {r: 0.19215687, g: 0.3019608, b: 0.4745098, a: 0.019607844}
  m_projectionMatrixMode: 1
  m_SensorSize: {x: 36, y: 24}
  m_LensShift: {x: 0, y: 0}
  m_FocalLength: 50
  m_NormalizedViewPortRect:
    serializedVersion: 2
    x: 0
    y: 0
    width: 1
    height: 1
  near clip plane: 0.3
  far clip plane: 1000
  field of view: 60
  orthographic: 0
  orthographic size: 5
  m_Depth: -1
  m_CullingMask:
    serializedVersion: 2
    m_Bits: 4294967295
  m_RenderingPath: -1
  m_TargetTexture: {fileID: 0}
  m_TargetDisplay: 0
  m_TargetEye: 3
  m_HDR: 0
  m_AllowMSAA: 1
  m_AllowDynamicResolution: 0
  m_ForceIntoRT: 0
  m_OcclusionCulling: 1
  m_StereoConvergence: 10
  m_StereoSeparation: 0.022
--- !u!4 &1146005599
Transform:
  m_ObjectHideFlags: 0
  m_CorrespondingSourceObject: {fileID: 0}
  m_PrefabInternal: {fileID: 0}
  m_GameObject: {fileID: 1146005594}
  m_LocalRotation: {x: 0, y: 0, z: 0, w: 1}
  m_LocalPosition: {x: 0, y: 1, z: -10}
  m_LocalScale: {x: 1, y: 1, z: 1}
  m_Children: []
  m_Father: {fileID: 0}
  m_RootOrder: 0
  m_LocalEulerAnglesHint: {x: 0, y: 0, z: 0}
--- !u!1 &1171313136
GameObject:
  m_ObjectHideFlags: 0
  m_CorrespondingSourceObject: {fileID: 106074, guid: 1b72e8ef40d1d994b8b788fb146d7edc,
    type: 2}
  m_PrefabInternal: {fileID: 109307139}
  serializedVersion: 6
  m_Component:
  - component: {fileID: 673416604}
  - component: {fileID: 1171313139}
  - component: {fileID: 1171313138}
  - component: {fileID: 1171313137}
  m_Layer: 0
  m_Name: V1_T1_S6
  m_TagString: Untagged
  m_Icon: {fileID: 0}
  m_NavMeshLayer: 0
  m_StaticEditorFlags: 0
  m_IsActive: 1
--- !u!64 &1171313137
MeshCollider:
  m_ObjectHideFlags: 0
  m_CorrespondingSourceObject: {fileID: 6478234, guid: 1b72e8ef40d1d994b8b788fb146d7edc,
    type: 2}
  m_PrefabInternal: {fileID: 109307139}
  m_GameObject: {fileID: 1171313136}
  m_Material: {fileID: 0}
  m_IsTrigger: 0
  m_Enabled: 1
  serializedVersion: 3
  m_Convex: 0
  m_CookingOptions: 14
  m_SkinWidth: 0.01
  m_Mesh: {fileID: 4300000, guid: 3d5582b4ee67b6142b933c19769451a2, type: 3}
--- !u!23 &1171313138
MeshRenderer:
  m_ObjectHideFlags: 0
  m_CorrespondingSourceObject: {fileID: 2315052, guid: 1b72e8ef40d1d994b8b788fb146d7edc,
    type: 2}
  m_PrefabInternal: {fileID: 109307139}
  m_GameObject: {fileID: 1171313136}
  m_Enabled: 1
  m_CastShadows: 1
  m_ReceiveShadows: 1
  m_DynamicOccludee: 1
  m_MotionVectors: 1
  m_LightProbeUsage: 1
  m_ReflectionProbeUsage: 1
  m_RenderingLayerMask: 4294967295
  m_Materials:
  - {fileID: 2100000, guid: 12b3f9469630b5a408c70e43910f1478, type: 2}
  m_StaticBatchInfo:
    firstSubMesh: 0
    subMeshCount: 0
  m_StaticBatchRoot: {fileID: 0}
  m_ProbeAnchor: {fileID: 0}
  m_LightProbeVolumeOverride: {fileID: 0}
  m_ScaleInLightmap: 1
  m_PreserveUVs: 0
  m_IgnoreNormalsForChartDetection: 0
  m_ImportantGI: 0
  m_StitchLightmapSeams: 0
  m_SelectedEditorRenderState: 3
  m_MinimumChartSize: 4
  m_AutoUVMaxDistance: 0.5
  m_AutoUVMaxAngle: 89
  m_LightmapParameters: {fileID: 0}
  m_SortingLayerID: 0
  m_SortingLayer: 0
  m_SortingOrder: 0
--- !u!33 &1171313139
MeshFilter:
  m_ObjectHideFlags: 0
  m_CorrespondingSourceObject: {fileID: 3313748, guid: 1b72e8ef40d1d994b8b788fb146d7edc,
    type: 2}
  m_PrefabInternal: {fileID: 109307139}
  m_GameObject: {fileID: 1171313136}
  m_Mesh: {fileID: 4300000, guid: 781e3ddc9a93b8a4683cf8bf148763c9, type: 3}
--- !u!1 &1205281520
GameObject:
  m_ObjectHideFlags: 0
  m_CorrespondingSourceObject: {fileID: 109000, guid: 526a7966ccaa21a478875fa72207388c,
    type: 2}
  m_PrefabInternal: {fileID: 1337284693}
  serializedVersion: 6
  m_Component:
  - component: {fileID: 793428021}
  - component: {fileID: 1205281523}
  - component: {fileID: 1205281522}
  - component: {fileID: 1205281521}
  m_Layer: 0
  m_Name: V1_T1_S2
  m_TagString: Untagged
  m_Icon: {fileID: 0}
  m_NavMeshLayer: 0
  m_StaticEditorFlags: 0
  m_IsActive: 1
--- !u!64 &1205281521
MeshCollider:
  m_ObjectHideFlags: 0
  m_CorrespondingSourceObject: {fileID: 6466608, guid: 526a7966ccaa21a478875fa72207388c,
    type: 2}
  m_PrefabInternal: {fileID: 1337284693}
  m_GameObject: {fileID: 1205281520}
  m_Material: {fileID: 0}
  m_IsTrigger: 0
  m_Enabled: 1
  serializedVersion: 3
  m_Convex: 0
  m_CookingOptions: 14
  m_SkinWidth: 0.01
  m_Mesh: {fileID: 4300000, guid: 3d5582b4ee67b6142b933c19769451a2, type: 3}
--- !u!23 &1205281522
MeshRenderer:
  m_ObjectHideFlags: 0
  m_CorrespondingSourceObject: {fileID: 2393560, guid: 526a7966ccaa21a478875fa72207388c,
    type: 2}
  m_PrefabInternal: {fileID: 1337284693}
  m_GameObject: {fileID: 1205281520}
  m_Enabled: 1
  m_CastShadows: 1
  m_ReceiveShadows: 1
  m_DynamicOccludee: 1
  m_MotionVectors: 1
  m_LightProbeUsage: 1
  m_ReflectionProbeUsage: 1
  m_RenderingLayerMask: 4294967295
  m_Materials:
  - {fileID: 2100000, guid: 30716811bfd378a448227c056ca4ec2b, type: 2}
  m_StaticBatchInfo:
    firstSubMesh: 0
    subMeshCount: 0
  m_StaticBatchRoot: {fileID: 0}
  m_ProbeAnchor: {fileID: 0}
  m_LightProbeVolumeOverride: {fileID: 0}
  m_ScaleInLightmap: 1
  m_PreserveUVs: 0
  m_IgnoreNormalsForChartDetection: 0
  m_ImportantGI: 0
  m_StitchLightmapSeams: 0
  m_SelectedEditorRenderState: 3
  m_MinimumChartSize: 4
  m_AutoUVMaxDistance: 0.5
  m_AutoUVMaxAngle: 89
  m_LightmapParameters: {fileID: 0}
  m_SortingLayerID: 0
  m_SortingLayer: 0
  m_SortingOrder: 0
--- !u!33 &1205281523
MeshFilter:
  m_ObjectHideFlags: 0
  m_CorrespondingSourceObject: {fileID: 3391180, guid: 526a7966ccaa21a478875fa72207388c,
    type: 2}
  m_PrefabInternal: {fileID: 1337284693}
  m_GameObject: {fileID: 1205281520}
  m_Mesh: {fileID: 4300000, guid: 781e3ddc9a93b8a4683cf8bf148763c9, type: 3}
--- !u!4 &1224535993
Transform:
  m_ObjectHideFlags: 0
  m_CorrespondingSourceObject: {fileID: 485248, guid: 7fa8770c0c3055147a617e3961297c6f,
    type: 2}
  m_PrefabInternal: {fileID: 1756753154}
  m_GameObject: {fileID: 2028795404}
  m_LocalRotation: {x: 0, y: 0, z: 0, w: 1}
  m_LocalPosition: {x: -0.47865814, y: 0.13045657, z: 23.084791}
  m_LocalScale: {x: 1, y: 1, z: 1}
  m_Children: []
  m_Father: {fileID: 684034245}
  m_RootOrder: 2
  m_LocalEulerAnglesHint: {x: 0, y: 0, z: 0}
--- !u!4 &1283181916
Transform:
  m_ObjectHideFlags: 0
  m_CorrespondingSourceObject: {fileID: 465946, guid: 082fa50d1fb955f41a9e8d559d3f39e6,
    type: 2}
  m_PrefabInternal: {fileID: 1293721599}
  m_GameObject: {fileID: 13893448}
  m_LocalRotation: {x: 0, y: 0, z: 0, w: 1}
  m_LocalPosition: {x: -0.47865814, y: 0.13045657, z: 32.30479}
  m_LocalScale: {x: 1, y: 1, z: 1}
  m_Children: []
  m_Father: {fileID: 684034245}
  m_RootOrder: 5
  m_LocalEulerAnglesHint: {x: 0, y: 0, z: 0}
--- !u!1001 &1293721599
Prefab:
  m_ObjectHideFlags: 0
  serializedVersion: 2
  m_Modification:
    m_TransformParent: {fileID: 684034245}
    m_Modifications:
    - target: {fileID: 465946, guid: 082fa50d1fb955f41a9e8d559d3f39e6, type: 2}
      propertyPath: m_LocalPosition.x
      value: -0.47865814
      objectReference: {fileID: 0}
    - target: {fileID: 465946, guid: 082fa50d1fb955f41a9e8d559d3f39e6, type: 2}
      propertyPath: m_LocalPosition.y
      value: 0.13045657
      objectReference: {fileID: 0}
    - target: {fileID: 465946, guid: 082fa50d1fb955f41a9e8d559d3f39e6, type: 2}
      propertyPath: m_LocalPosition.z
      value: 32.30479
      objectReference: {fileID: 0}
    - target: {fileID: 465946, guid: 082fa50d1fb955f41a9e8d559d3f39e6, type: 2}
      propertyPath: m_LocalRotation.x
      value: 0
      objectReference: {fileID: 0}
    - target: {fileID: 465946, guid: 082fa50d1fb955f41a9e8d559d3f39e6, type: 2}
      propertyPath: m_LocalRotation.y
      value: 0
      objectReference: {fileID: 0}
    - target: {fileID: 465946, guid: 082fa50d1fb955f41a9e8d559d3f39e6, type: 2}
      propertyPath: m_LocalRotation.z
      value: 0
      objectReference: {fileID: 0}
    - target: {fileID: 465946, guid: 082fa50d1fb955f41a9e8d559d3f39e6, type: 2}
      propertyPath: m_LocalRotation.w
      value: 1
      objectReference: {fileID: 0}
    - target: {fileID: 465946, guid: 082fa50d1fb955f41a9e8d559d3f39e6, type: 2}
      propertyPath: m_RootOrder
      value: 5
      objectReference: {fileID: 0}
    m_RemovedComponents: []
  m_SourcePrefab: {fileID: 100100000, guid: 082fa50d1fb955f41a9e8d559d3f39e6, type: 2}
  m_RootGameObject: {fileID: 13893448}
  m_IsPrefabAsset: 0
--- !u!1001 &1337284693
Prefab:
  m_ObjectHideFlags: 0
  serializedVersion: 2
  m_Modification:
    m_TransformParent: {fileID: 118307822}
    m_Modifications:
    - target: {fileID: 435304, guid: 526a7966ccaa21a478875fa72207388c, type: 2}
      propertyPath: m_LocalPosition.x
      value: -0.58865815
      objectReference: {fileID: 0}
    - target: {fileID: 435304, guid: 526a7966ccaa21a478875fa72207388c, type: 2}
      propertyPath: m_LocalPosition.y
      value: 0.13045657
      objectReference: {fileID: 0}
    - target: {fileID: 435304, guid: 526a7966ccaa21a478875fa72207388c, type: 2}
      propertyPath: m_LocalPosition.z
      value: 0.08779168
      objectReference: {fileID: 0}
    - target: {fileID: 435304, guid: 526a7966ccaa21a478875fa72207388c, type: 2}
      propertyPath: m_LocalRotation.x
      value: 0
      objectReference: {fileID: 0}
    - target: {fileID: 435304, guid: 526a7966ccaa21a478875fa72207388c, type: 2}
      propertyPath: m_LocalRotation.y
      value: 0
      objectReference: {fileID: 0}
    - target: {fileID: 435304, guid: 526a7966ccaa21a478875fa72207388c, type: 2}
      propertyPath: m_LocalRotation.z
      value: 0
      objectReference: {fileID: 0}
    - target: {fileID: 435304, guid: 526a7966ccaa21a478875fa72207388c, type: 2}
      propertyPath: m_LocalRotation.w
      value: 1
      objectReference: {fileID: 0}
    - target: {fileID: 435304, guid: 526a7966ccaa21a478875fa72207388c, type: 2}
      propertyPath: m_RootOrder
      value: 1
      objectReference: {fileID: 0}
    m_RemovedComponents: []
  m_SourcePrefab: {fileID: 100100000, guid: 526a7966ccaa21a478875fa72207388c, type: 2}
  m_RootGameObject: {fileID: 1205281520}
  m_IsPrefabAsset: 0
--- !u!1001 &1451689083
Prefab:
  m_ObjectHideFlags: 0
  serializedVersion: 2
  m_Modification:
    m_TransformParent: {fileID: 118307822}
    m_Modifications:
    - target: {fileID: 441738, guid: 48667392d0f3a0840908c9cfde01c9ba, type: 2}
      propertyPath: m_LocalPosition.x
      value: -0.58865815
      objectReference: {fileID: 0}
    - target: {fileID: 441738, guid: 48667392d0f3a0840908c9cfde01c9ba, type: 2}
      propertyPath: m_LocalPosition.y
      value: 0.13045657
      objectReference: {fileID: 0}
    - target: {fileID: 441738, guid: 48667392d0f3a0840908c9cfde01c9ba, type: 2}
      propertyPath: m_LocalPosition.z
      value: 2.9687915
      objectReference: {fileID: 0}
    - target: {fileID: 441738, guid: 48667392d0f3a0840908c9cfde01c9ba, type: 2}
      propertyPath: m_LocalRotation.x
      value: 0
      objectReference: {fileID: 0}
    - target: {fileID: 441738, guid: 48667392d0f3a0840908c9cfde01c9ba, type: 2}
      propertyPath: m_LocalRotation.y
      value: 0
      objectReference: {fileID: 0}
    - target: {fileID: 441738, guid: 48667392d0f3a0840908c9cfde01c9ba, type: 2}
      propertyPath: m_LocalRotation.z
      value: 0
      objectReference: {fileID: 0}
    - target: {fileID: 441738, guid: 48667392d0f3a0840908c9cfde01c9ba, type: 2}
      propertyPath: m_LocalRotation.w
      value: 1
      objectReference: {fileID: 0}
    - target: {fileID: 441738, guid: 48667392d0f3a0840908c9cfde01c9ba, type: 2}
      propertyPath: m_RootOrder
      value: 2
      objectReference: {fileID: 0}
    m_RemovedComponents: []
  m_SourcePrefab: {fileID: 100100000, guid: 48667392d0f3a0840908c9cfde01c9ba, type: 2}
  m_RootGameObject: {fileID: 80424136}
  m_IsPrefabAsset: 0
--- !u!1 &1519584208
GameObject:
  m_ObjectHideFlags: 0
  m_CorrespondingSourceObject: {fileID: 101476, guid: a997eceec76e3ec47ba0cfa16bd8ecf0,
    type: 2}
  m_PrefabInternal: {fileID: 1100600620}
  serializedVersion: 6
  m_Component:
  - component: {fileID: 290445086}
  - component: {fileID: 1519584211}
  - component: {fileID: 1519584210}
  - component: {fileID: 1519584209}
  m_Layer: 0
  m_Name: V1_T1_S5
  m_TagString: Untagged
  m_Icon: {fileID: 0}
  m_NavMeshLayer: 0
  m_StaticEditorFlags: 0
  m_IsActive: 1
--- !u!64 &1519584209
MeshCollider:
  m_ObjectHideFlags: 0
  m_CorrespondingSourceObject: {fileID: 6430480, guid: a997eceec76e3ec47ba0cfa16bd8ecf0,
    type: 2}
  m_PrefabInternal: {fileID: 1100600620}
  m_GameObject: {fileID: 1519584208}
  m_Material: {fileID: 0}
  m_IsTrigger: 0
  m_Enabled: 1
  serializedVersion: 3
  m_Convex: 0
  m_CookingOptions: 14
  m_SkinWidth: 0.01
  m_Mesh: {fileID: 4300000, guid: 3d5582b4ee67b6142b933c19769451a2, type: 3}
--- !u!23 &1519584210
MeshRenderer:
  m_ObjectHideFlags: 0
  m_CorrespondingSourceObject: {fileID: 2376574, guid: a997eceec76e3ec47ba0cfa16bd8ecf0,
    type: 2}
  m_PrefabInternal: {fileID: 1100600620}
  m_GameObject: {fileID: 1519584208}
  m_Enabled: 1
  m_CastShadows: 1
  m_ReceiveShadows: 1
  m_DynamicOccludee: 1
  m_MotionVectors: 1
  m_LightProbeUsage: 1
  m_ReflectionProbeUsage: 1
  m_RenderingLayerMask: 4294967295
  m_Materials:
  - {fileID: 2100000, guid: 078edf659f7bbfd4497e2a464b310e4e, type: 2}
  m_StaticBatchInfo:
    firstSubMesh: 0
    subMeshCount: 0
  m_StaticBatchRoot: {fileID: 0}
  m_ProbeAnchor: {fileID: 0}
  m_LightProbeVolumeOverride: {fileID: 0}
  m_ScaleInLightmap: 1
  m_PreserveUVs: 0
  m_IgnoreNormalsForChartDetection: 0
  m_ImportantGI: 0
  m_StitchLightmapSeams: 0
  m_SelectedEditorRenderState: 3
  m_MinimumChartSize: 4
  m_AutoUVMaxDistance: 0.5
  m_AutoUVMaxAngle: 89
  m_LightmapParameters: {fileID: 0}
  m_SortingLayerID: 0
  m_SortingLayer: 0
  m_SortingOrder: 0
--- !u!33 &1519584211
MeshFilter:
  m_ObjectHideFlags: 0
  m_CorrespondingSourceObject: {fileID: 3386340, guid: a997eceec76e3ec47ba0cfa16bd8ecf0,
    type: 2}
  m_PrefabInternal: {fileID: 1100600620}
  m_GameObject: {fileID: 1519584208}
  m_Mesh: {fileID: 4300000, guid: 781e3ddc9a93b8a4683cf8bf148763c9, type: 3}
--- !u!1001 &1708761299
Prefab:
  m_ObjectHideFlags: 0
  serializedVersion: 2
  m_Modification:
    m_TransformParent: {fileID: 684034245}
    m_Modifications:
    - target: {fileID: 465074, guid: 9bc76da1019f2eb4d8003f62e12266a8, type: 2}
      propertyPath: m_LocalPosition.x
      value: -0.47865814
      objectReference: {fileID: 0}
    - target: {fileID: 465074, guid: 9bc76da1019f2eb4d8003f62e12266a8, type: 2}
      propertyPath: m_LocalPosition.y
      value: 0.13045657
      objectReference: {fileID: 0}
    - target: {fileID: 465074, guid: 9bc76da1019f2eb4d8003f62e12266a8, type: 2}
      propertyPath: m_LocalPosition.z
      value: 29.324791
      objectReference: {fileID: 0}
    - target: {fileID: 465074, guid: 9bc76da1019f2eb4d8003f62e12266a8, type: 2}
      propertyPath: m_LocalRotation.x
      value: 0
      objectReference: {fileID: 0}
    - target: {fileID: 465074, guid: 9bc76da1019f2eb4d8003f62e12266a8, type: 2}
      propertyPath: m_LocalRotation.y
      value: 0
      objectReference: {fileID: 0}
    - target: {fileID: 465074, guid: 9bc76da1019f2eb4d8003f62e12266a8, type: 2}
      propertyPath: m_LocalRotation.z
      value: 0
      objectReference: {fileID: 0}
    - target: {fileID: 465074, guid: 9bc76da1019f2eb4d8003f62e12266a8, type: 2}
      propertyPath: m_LocalRotation.w
      value: 1
      objectReference: {fileID: 0}
    - target: {fileID: 465074, guid: 9bc76da1019f2eb4d8003f62e12266a8, type: 2}
      propertyPath: m_RootOrder
      value: 4
      objectReference: {fileID: 0}
    m_RemovedComponents: []
  m_SourcePrefab: {fileID: 100100000, guid: 9bc76da1019f2eb4d8003f62e12266a8, type: 2}
  m_RootGameObject: {fileID: 2106286684}
  m_IsPrefabAsset: 0
--- !u!1 &1733980134
GameObject:
  m_ObjectHideFlags: 0
  m_CorrespondingSourceObject: {fileID: 142732, guid: 0993ac6bb0c93b44f9426215366bbb86,
    type: 2}
  m_PrefabInternal: {fileID: 1098867852}
  serializedVersion: 6
  m_Component:
  - component: {fileID: 365265409}
  - component: {fileID: 1733980137}
  - component: {fileID: 1733980136}
  - component: {fileID: 1733980135}
  m_Layer: 0
  m_Name: V1_T2_S2
  m_TagString: Untagged
  m_Icon: {fileID: 0}
  m_NavMeshLayer: 0
  m_StaticEditorFlags: 0
  m_IsActive: 1
--- !u!64 &1733980135
MeshCollider:
  m_ObjectHideFlags: 0
  m_CorrespondingSourceObject: {fileID: 6480002, guid: 0993ac6bb0c93b44f9426215366bbb86,
    type: 2}
  m_PrefabInternal: {fileID: 1098867852}
  m_GameObject: {fileID: 1733980134}
  m_Material: {fileID: 0}
  m_IsTrigger: 0
  m_Enabled: 1
  serializedVersion: 3
  m_Convex: 0
  m_CookingOptions: 14
  m_SkinWidth: 0.01
  m_Mesh: {fileID: 4300000, guid: 3d5582b4ee67b6142b933c19769451a2, type: 3}
--- !u!23 &1733980136
MeshRenderer:
  m_ObjectHideFlags: 0
  m_CorrespondingSourceObject: {fileID: 2328878, guid: 0993ac6bb0c93b44f9426215366bbb86,
    type: 2}
  m_PrefabInternal: {fileID: 1098867852}
  m_GameObject: {fileID: 1733980134}
  m_Enabled: 1
  m_CastShadows: 1
  m_ReceiveShadows: 1
  m_DynamicOccludee: 1
  m_MotionVectors: 1
  m_LightProbeUsage: 1
  m_ReflectionProbeUsage: 1
  m_RenderingLayerMask: 4294967295
  m_Materials:
  - {fileID: 2100000, guid: 00d2c2b13898b87409b557b6f3e034e3, type: 2}
  m_StaticBatchInfo:
    firstSubMesh: 0
    subMeshCount: 0
  m_StaticBatchRoot: {fileID: 0}
  m_ProbeAnchor: {fileID: 0}
  m_LightProbeVolumeOverride: {fileID: 0}
  m_ScaleInLightmap: 1
  m_PreserveUVs: 0
  m_IgnoreNormalsForChartDetection: 0
  m_ImportantGI: 0
  m_StitchLightmapSeams: 0
  m_SelectedEditorRenderState: 3
  m_MinimumChartSize: 4
  m_AutoUVMaxDistance: 0.5
  m_AutoUVMaxAngle: 89
  m_LightmapParameters: {fileID: 0}
  m_SortingLayerID: 0
  m_SortingLayer: 0
  m_SortingOrder: 0
--- !u!33 &1733980137
MeshFilter:
  m_ObjectHideFlags: 0
  m_CorrespondingSourceObject: {fileID: 3303294, guid: 0993ac6bb0c93b44f9426215366bbb86,
    type: 2}
  m_PrefabInternal: {fileID: 1098867852}
  m_GameObject: {fileID: 1733980134}
  m_Mesh: {fileID: 4300000, guid: 5620a09226f109343943f01b6efcd974, type: 3}
--- !u!1001 &1756753154
Prefab:
  m_ObjectHideFlags: 0
  serializedVersion: 2
  m_Modification:
    m_TransformParent: {fileID: 684034245}
    m_Modifications:
    - target: {fileID: 485248, guid: 7fa8770c0c3055147a617e3961297c6f, type: 2}
      propertyPath: m_LocalPosition.x
      value: -0.47865814
      objectReference: {fileID: 0}
    - target: {fileID: 485248, guid: 7fa8770c0c3055147a617e3961297c6f, type: 2}
      propertyPath: m_LocalPosition.y
      value: 0.13045657
      objectReference: {fileID: 0}
    - target: {fileID: 485248, guid: 7fa8770c0c3055147a617e3961297c6f, type: 2}
      propertyPath: m_LocalPosition.z
      value: 23.084791
      objectReference: {fileID: 0}
    - target: {fileID: 485248, guid: 7fa8770c0c3055147a617e3961297c6f, type: 2}
      propertyPath: m_LocalRotation.x
      value: 0
      objectReference: {fileID: 0}
    - target: {fileID: 485248, guid: 7fa8770c0c3055147a617e3961297c6f, type: 2}
      propertyPath: m_LocalRotation.y
      value: 0
      objectReference: {fileID: 0}
    - target: {fileID: 485248, guid: 7fa8770c0c3055147a617e3961297c6f, type: 2}
      propertyPath: m_LocalRotation.z
      value: 0
      objectReference: {fileID: 0}
    - target: {fileID: 485248, guid: 7fa8770c0c3055147a617e3961297c6f, type: 2}
      propertyPath: m_LocalRotation.w
      value: 1
      objectReference: {fileID: 0}
    - target: {fileID: 485248, guid: 7fa8770c0c3055147a617e3961297c6f, type: 2}
      propertyPath: m_RootOrder
      value: 2
      objectReference: {fileID: 0}
    m_RemovedComponents: []
  m_SourcePrefab: {fileID: 100100000, guid: 7fa8770c0c3055147a617e3961297c6f, type: 2}
  m_RootGameObject: {fileID: 2028795404}
  m_IsPrefabAsset: 0
--- !u!4 &1761412813
Transform:
  m_ObjectHideFlags: 0
  m_CorrespondingSourceObject: {fileID: 465074, guid: 9bc76da1019f2eb4d8003f62e12266a8,
    type: 2}
  m_PrefabInternal: {fileID: 1708761299}
  m_GameObject: {fileID: 2106286684}
  m_LocalRotation: {x: 0, y: 0, z: 0, w: 1}
  m_LocalPosition: {x: -0.47865814, y: 0.13045657, z: 29.324791}
  m_LocalScale: {x: 1, y: 1, z: 1}
  m_Children: []
  m_Father: {fileID: 684034245}
  m_RootOrder: 4
  m_LocalEulerAnglesHint: {x: 0, y: 0, z: 0}
--- !u!1001 &1762167624
Prefab:
  m_ObjectHideFlags: 0
  serializedVersion: 2
  m_Modification:
    m_TransformParent: {fileID: 684034245}
    m_Modifications:
    - target: {fileID: 472742, guid: 558c8282b60471344bb6abd6cd7d800c, type: 2}
      propertyPath: m_LocalPosition.x
      value: -0.47865814
      objectReference: {fileID: 0}
    - target: {fileID: 472742, guid: 558c8282b60471344bb6abd6cd7d800c, type: 2}
      propertyPath: m_LocalPosition.y
      value: 0.13045657
      objectReference: {fileID: 0}
    - target: {fileID: 472742, guid: 558c8282b60471344bb6abd6cd7d800c, type: 2}
      propertyPath: m_LocalPosition.z
      value: 16.994791
      objectReference: {fileID: 0}
    - target: {fileID: 472742, guid: 558c8282b60471344bb6abd6cd7d800c, type: 2}
      propertyPath: m_LocalRotation.x
      value: 0
      objectReference: {fileID: 0}
    - target: {fileID: 472742, guid: 558c8282b60471344bb6abd6cd7d800c, type: 2}
      propertyPath: m_LocalRotation.y
      value: 0
      objectReference: {fileID: 0}
    - target: {fileID: 472742, guid: 558c8282b60471344bb6abd6cd7d800c, type: 2}
      propertyPath: m_LocalRotation.z
      value: 0
      objectReference: {fileID: 0}
    - target: {fileID: 472742, guid: 558c8282b60471344bb6abd6cd7d800c, type: 2}
      propertyPath: m_LocalRotation.w
      value: 1
      objectReference: {fileID: 0}
    - target: {fileID: 472742, guid: 558c8282b60471344bb6abd6cd7d800c, type: 2}
      propertyPath: m_RootOrder
      value: 0
      objectReference: {fileID: 0}
    m_RemovedComponents: []
  m_SourcePrefab: {fileID: 100100000, guid: 558c8282b60471344bb6abd6cd7d800c, type: 2}
  m_RootGameObject: {fileID: 1105553619}
  m_IsPrefabAsset: 0
--- !u!1 &1854038587
GameObject:
  m_ObjectHideFlags: 0
  m_CorrespondingSourceObject: {fileID: 123524, guid: 8187d2ea101f9734fbd61915152584c5,
    type: 2}
  m_PrefabInternal: {fileID: 2071495319}
  serializedVersion: 6
  m_Component:
  - component: {fileID: 1967984268}
  - component: {fileID: 1854038590}
  - component: {fileID: 1854038589}
  - component: {fileID: 1854038588}
  m_Layer: 0
  m_Name: V1_T1_S4
  m_TagString: Untagged
  m_Icon: {fileID: 0}
  m_NavMeshLayer: 0
  m_StaticEditorFlags: 0
  m_IsActive: 1
--- !u!64 &1854038588
MeshCollider:
  m_ObjectHideFlags: 0
  m_CorrespondingSourceObject: {fileID: 6460046, guid: 8187d2ea101f9734fbd61915152584c5,
    type: 2}
  m_PrefabInternal: {fileID: 2071495319}
  m_GameObject: {fileID: 1854038587}
  m_Material: {fileID: 0}
  m_IsTrigger: 0
  m_Enabled: 1
  serializedVersion: 3
  m_Convex: 0
  m_CookingOptions: 14
  m_SkinWidth: 0.01
  m_Mesh: {fileID: 4300000, guid: 3d5582b4ee67b6142b933c19769451a2, type: 3}
--- !u!23 &1854038589
MeshRenderer:
  m_ObjectHideFlags: 0
  m_CorrespondingSourceObject: {fileID: 2312802, guid: 8187d2ea101f9734fbd61915152584c5,
    type: 2}
  m_PrefabInternal: {fileID: 2071495319}
  m_GameObject: {fileID: 1854038587}
  m_Enabled: 1
  m_CastShadows: 1
  m_ReceiveShadows: 1
  m_DynamicOccludee: 1
  m_MotionVectors: 1
  m_LightProbeUsage: 1
  m_ReflectionProbeUsage: 1
  m_RenderingLayerMask: 4294967295
  m_Materials:
  - {fileID: 2100000, guid: a267901b839c57943b24d07f23579bca, type: 2}
  m_StaticBatchInfo:
    firstSubMesh: 0
    subMeshCount: 0
  m_StaticBatchRoot: {fileID: 0}
  m_ProbeAnchor: {fileID: 0}
  m_LightProbeVolumeOverride: {fileID: 0}
  m_ScaleInLightmap: 1
  m_PreserveUVs: 0
  m_IgnoreNormalsForChartDetection: 0
  m_ImportantGI: 0
  m_StitchLightmapSeams: 0
  m_SelectedEditorRenderState: 3
  m_MinimumChartSize: 4
  m_AutoUVMaxDistance: 0.5
  m_AutoUVMaxAngle: 89
  m_LightmapParameters: {fileID: 0}
  m_SortingLayerID: 0
  m_SortingLayer: 0
  m_SortingOrder: 0
--- !u!33 &1854038590
MeshFilter:
  m_ObjectHideFlags: 0
  m_CorrespondingSourceObject: {fileID: 3344434, guid: 8187d2ea101f9734fbd61915152584c5,
    type: 2}
  m_PrefabInternal: {fileID: 2071495319}
  m_GameObject: {fileID: 1854038587}
  m_Mesh: {fileID: 4300000, guid: 781e3ddc9a93b8a4683cf8bf148763c9, type: 3}
--- !u!4 &1881520168
Transform:
  m_ObjectHideFlags: 0
  m_CorrespondingSourceObject: {fileID: 406496, guid: 5eee0ef564f68bc489f8b8dde7899c02,
    type: 2}
  m_PrefabInternal: {fileID: 874217469}
  m_GameObject: {fileID: 729147535}
  m_LocalRotation: {x: 0, y: 0, z: 0, w: 1}
  m_LocalPosition: {x: -0.47865814, y: 0.13045657, z: 26.214792}
  m_LocalScale: {x: 1, y: 1, z: 1}
  m_Children: []
  m_Father: {fileID: 684034245}
  m_RootOrder: 3
  m_LocalEulerAnglesHint: {x: 0, y: 0, z: 0}
--- !u!4 &1967984268
Transform:
  m_ObjectHideFlags: 0
  m_CorrespondingSourceObject: {fileID: 491700, guid: 8187d2ea101f9734fbd61915152584c5,
    type: 2}
  m_PrefabInternal: {fileID: 2071495319}
  m_GameObject: {fileID: 1854038587}
  m_LocalRotation: {x: 0, y: 0, z: 0, w: 1}
  m_LocalPosition: {x: -0.58865815, y: 0.13045657, z: 5.8947916}
  m_LocalScale: {x: 1, y: 1, z: 1}
  m_Children: []
  m_Father: {fileID: 118307822}
  m_RootOrder: 3
  m_LocalEulerAnglesHint: {x: 0, y: 0, z: 0}
--- !u!1 &2028795404
GameObject:
  m_ObjectHideFlags: 0
  m_CorrespondingSourceObject: {fileID: 108048, guid: 7fa8770c0c3055147a617e3961297c6f,
    type: 2}
  m_PrefabInternal: {fileID: 1756753154}
  serializedVersion: 6
  m_Component:
  - component: {fileID: 1224535993}
  - component: {fileID: 2028795407}
  - component: {fileID: 2028795406}
  - component: {fileID: 2028795405}
  m_Layer: 0
  m_Name: V1_T2_S3
  m_TagString: Untagged
  m_Icon: {fileID: 0}
  m_NavMeshLayer: 0
  m_StaticEditorFlags: 0
  m_IsActive: 1
--- !u!64 &2028795405
MeshCollider:
  m_ObjectHideFlags: 0
  m_CorrespondingSourceObject: {fileID: 6428826, guid: 7fa8770c0c3055147a617e3961297c6f,
    type: 2}
  m_PrefabInternal: {fileID: 1756753154}
  m_GameObject: {fileID: 2028795404}
  m_Material: {fileID: 0}
  m_IsTrigger: 0
  m_Enabled: 1
  serializedVersion: 3
  m_Convex: 0
  m_CookingOptions: 14
  m_SkinWidth: 0.01
  m_Mesh: {fileID: 4300000, guid: 3d5582b4ee67b6142b933c19769451a2, type: 3}
--- !u!23 &2028795406
MeshRenderer:
  m_ObjectHideFlags: 0
  m_CorrespondingSourceObject: {fileID: 2337048, guid: 7fa8770c0c3055147a617e3961297c6f,
    type: 2}
  m_PrefabInternal: {fileID: 1756753154}
  m_GameObject: {fileID: 2028795404}
  m_Enabled: 1
  m_CastShadows: 1
  m_ReceiveShadows: 1
  m_DynamicOccludee: 1
  m_MotionVectors: 1
  m_LightProbeUsage: 1
  m_ReflectionProbeUsage: 1
  m_RenderingLayerMask: 4294967295
  m_Materials:
  - {fileID: 2100000, guid: 57531e7768a35f04293dd52491f84546, type: 2}
  m_StaticBatchInfo:
    firstSubMesh: 0
    subMeshCount: 0
  m_StaticBatchRoot: {fileID: 0}
  m_ProbeAnchor: {fileID: 0}
  m_LightProbeVolumeOverride: {fileID: 0}
  m_ScaleInLightmap: 1
  m_PreserveUVs: 0
  m_IgnoreNormalsForChartDetection: 0
  m_ImportantGI: 0
  m_StitchLightmapSeams: 0
  m_SelectedEditorRenderState: 3
  m_MinimumChartSize: 4
  m_AutoUVMaxDistance: 0.5
  m_AutoUVMaxAngle: 89
  m_LightmapParameters: {fileID: 0}
  m_SortingLayerID: 0
  m_SortingLayer: 0
  m_SortingOrder: 0
--- !u!33 &2028795407
MeshFilter:
  m_ObjectHideFlags: 0
  m_CorrespondingSourceObject: {fileID: 3309126, guid: 7fa8770c0c3055147a617e3961297c6f,
    type: 2}
  m_PrefabInternal: {fileID: 1756753154}
  m_GameObject: {fileID: 2028795404}
  m_Mesh: {fileID: 4300000, guid: 5620a09226f109343943f01b6efcd974, type: 3}
--- !u!1001 &2071495319
Prefab:
  m_ObjectHideFlags: 0
  serializedVersion: 2
  m_Modification:
    m_TransformParent: {fileID: 118307822}
    m_Modifications:
    - target: {fileID: 491700, guid: 8187d2ea101f9734fbd61915152584c5, type: 2}
      propertyPath: m_LocalPosition.x
      value: -0.58865815
      objectReference: {fileID: 0}
    - target: {fileID: 491700, guid: 8187d2ea101f9734fbd61915152584c5, type: 2}
      propertyPath: m_LocalPosition.y
      value: 0.13045657
      objectReference: {fileID: 0}
    - target: {fileID: 491700, guid: 8187d2ea101f9734fbd61915152584c5, type: 2}
      propertyPath: m_LocalPosition.z
      value: 5.8947916
      objectReference: {fileID: 0}
    - target: {fileID: 491700, guid: 8187d2ea101f9734fbd61915152584c5, type: 2}
      propertyPath: m_LocalRotation.x
      value: 0
      objectReference: {fileID: 0}
    - target: {fileID: 491700, guid: 8187d2ea101f9734fbd61915152584c5, type: 2}
      propertyPath: m_LocalRotation.y
      value: 0
      objectReference: {fileID: 0}
    - target: {fileID: 491700, guid: 8187d2ea101f9734fbd61915152584c5, type: 2}
      propertyPath: m_LocalRotation.z
      value: 0
      objectReference: {fileID: 0}
    - target: {fileID: 491700, guid: 8187d2ea101f9734fbd61915152584c5, type: 2}
      propertyPath: m_LocalRotation.w
      value: 1
      objectReference: {fileID: 0}
    - target: {fileID: 491700, guid: 8187d2ea101f9734fbd61915152584c5, type: 2}
      propertyPath: m_RootOrder
      value: 3
      objectReference: {fileID: 0}
    m_RemovedComponents: []
  m_SourcePrefab: {fileID: 100100000, guid: 8187d2ea101f9734fbd61915152584c5, type: 2}
  m_RootGameObject: {fileID: 1854038587}
  m_IsPrefabAsset: 0
--- !u!1 &2106286684
GameObject:
  m_ObjectHideFlags: 0
  m_CorrespondingSourceObject: {fileID: 177112, guid: 9bc76da1019f2eb4d8003f62e12266a8,
    type: 2}
  m_PrefabInternal: {fileID: 1708761299}
  serializedVersion: 6
  m_Component:
  - component: {fileID: 1761412813}
  - component: {fileID: 2106286687}
  - component: {fileID: 2106286686}
  - component: {fileID: 2106286685}
  m_Layer: 0
  m_Name: V1_T2_S5
  m_TagString: Untagged
  m_Icon: {fileID: 0}
  m_NavMeshLayer: 0
  m_StaticEditorFlags: 0
  m_IsActive: 1
--- !u!64 &2106286685
MeshCollider:
  m_ObjectHideFlags: 0
  m_CorrespondingSourceObject: {fileID: 6462030, guid: 9bc76da1019f2eb4d8003f62e12266a8,
    type: 2}
  m_PrefabInternal: {fileID: 1708761299}
  m_GameObject: {fileID: 2106286684}
  m_Material: {fileID: 0}
  m_IsTrigger: 0
  m_Enabled: 1
  serializedVersion: 3
  m_Convex: 0
  m_CookingOptions: 14
  m_SkinWidth: 0.01
  m_Mesh: {fileID: 4300000, guid: 3d5582b4ee67b6142b933c19769451a2, type: 3}
--- !u!23 &2106286686
MeshRenderer:
  m_ObjectHideFlags: 0
  m_CorrespondingSourceObject: {fileID: 2315050, guid: 9bc76da1019f2eb4d8003f62e12266a8,
    type: 2}
  m_PrefabInternal: {fileID: 1708761299}
  m_GameObject: {fileID: 2106286684}
  m_Enabled: 1
  m_CastShadows: 1
  m_ReceiveShadows: 1
  m_DynamicOccludee: 1
  m_MotionVectors: 1
  m_LightProbeUsage: 1
  m_ReflectionProbeUsage: 1
  m_RenderingLayerMask: 4294967295
  m_Materials:
  - {fileID: 2100000, guid: a1d46268eea1a7e49b31cb7c2cfca704, type: 2}
  m_StaticBatchInfo:
    firstSubMesh: 0
    subMeshCount: 0
  m_StaticBatchRoot: {fileID: 0}
  m_ProbeAnchor: {fileID: 0}
  m_LightProbeVolumeOverride: {fileID: 0}
  m_ScaleInLightmap: 1
  m_PreserveUVs: 0
  m_IgnoreNormalsForChartDetection: 0
  m_ImportantGI: 0
  m_StitchLightmapSeams: 0
  m_SelectedEditorRenderState: 3
  m_MinimumChartSize: 4
  m_AutoUVMaxDistance: 0.5
  m_AutoUVMaxAngle: 89
  m_LightmapParameters: {fileID: 0}
  m_SortingLayerID: 0
  m_SortingLayer: 0
  m_SortingOrder: 0
--- !u!33 &2106286687
MeshFilter:
  m_ObjectHideFlags: 0
  m_CorrespondingSourceObject: {fileID: 3346842, guid: 9bc76da1019f2eb4d8003f62e12266a8,
    type: 2}
  m_PrefabInternal: {fileID: 1708761299}
  m_GameObject: {fileID: 2106286684}
  m_Mesh: {fileID: 4300000, guid: 5620a09226f109343943f01b6efcd974, type: 3}
